// Jest Snapshot v1, https://goo.gl/fbAQLP

exports[`Topic renders children correctly 1`] = `
<div>
  <div>
    <div
      style={Object {}}
    >
      <input
        aria-activedescendant={null}
        aria-autocomplete="list"
        aria-expanded={false}
        aria-haspopup={false}
        aria-owns="react-autowhatever-1"
        autoComplete="off"
        onBlur={[Function]}
        onChange={[Function]}
        onFocus={[Function]}
        onKeyDown={[Function]}
        role="combobox"
        style={Object {}}
        type="text"
        value=""
      />
      <div
        id="react-autowhatever-1"
        style={Object {}}
      />
    </div>
  </div>
  <div
    className="chipWrapper"
  />
</div>
`;
